<?xml version="1.0" encoding="UTF-8" standalone="no"?>
<svg width="56px" height="56px" viewBox="0 0 56 56" version="1.1" xmlns="http://www.w3.org/2000/svg" xmlns:xlink="http://www.w3.org/1999/xlink" xmlns:sketch="http://www.bohemiancoding.com/sketch/ns">
    <!-- Generator: sketchtool 3.5.1 (25234) - http://www.bohemiancoding.com/sketch -->
    <title>Anyhting Goes icon</title>
    <desc>Created with sketchtool.</desc>
    <defs></defs>
    <g id="Homepage" stroke="none" stroke-width="1" fill="none" fill-rule="evenodd" sketch:type="MSPage">
        <g sketch:type="MSArtboardGroup" transform="translate(-692.000000, -6013.000000)" id="Anything-Goes">
            <g sketch:type="MSLayerGroup" transform="translate(120.000000, 6014.000000)">
                <g id="Header" transform="translate(348.000000, 0.000000)" sketch:type="MSShapeGroup">
                    <g id="Anyhting-Goes-icon" transform="translate(225.000000, 0.000000)">
                        <ellipse id="Oval" stroke="#0055A5" stroke-width="2" cx="27" cy="27" rx="27" ry="27"></ellipse>
                        <path d="M40,39.7857143 C40,40.7723214 39.2008929,41.5714286 38.2142857,41.5714286 L16.7857143,41.5714286 C15.7991071,41.5714286 15,40.7723214 15,39.7857143 L15,23.7142857 C15,23.53125 15.0526786,23.3633929 15.1044643,23.1964286 C14.9785714,22.9357143 14.9660714,22.6285714 15.1285714,22.3607143 L19.4553571,13.4383929 C19.6178571,13.1696429 19.9008929,13.0580357 20.2017857,13.03125 C20.2535714,13.0214286 20.3026786,13 20.3571429,13 L34.6428571,13 C34.6973214,13 34.7455357,13.0214286 34.7982143,13.03125 C35.0982143,13.0580357 35.3821429,13.1696429 35.54375,13.4383929 L39.8705357,22.3607143 C40.0330357,22.6285714 40.0214286,22.9357143 39.8955357,23.1964286 C39.9473214,23.3633929 40,23.53125 40,23.7142857 L40,39.7857143 L40,39.7857143 Z M20.9116071,14.7866071 L17.4482143,21.9294643 L24.2258929,21.9294643 L25.4160714,14.7866071 L20.9116071,14.7866071 L20.9116071,14.7866071 Z M27.5,14.7866071 L25.7142857,21.9294643 L29.2857143,21.9294643 L27.5,14.7866071 L27.5,14.7866071 Z M25.7142857,30.8571429 L29.2857143,30.8571429 L29.2857143,23.7151786 L25.7142857,23.7151786 L25.7142857,30.8571429 Z M34.0883929,14.7866071 L29.5830357,14.7866071 L30.7732143,21.9294643 L37.5517857,21.9294643 L34.0883929,14.7866071 L34.0883929,14.7866071 Z M38.2142857,24.6080357 C38.2142857,24.1133929 37.8142857,23.7142857 37.3214286,23.7142857 L31.0714286,23.7142857 L31.0714286,32.6419643 L23.9285714,32.6419643 L23.9285714,23.7142857 L17.6785714,23.7142857 C17.1848214,23.7142857 16.7857143,24.1133929 16.7857143,24.6080357 L16.7857143,38.89375 C16.7857143,39.3848214 17.1848214,39.7857143 17.6785714,39.7857143 L37.3214286,39.7857143 C37.8142857,39.7857143 38.2142857,39.3848214 38.2142857,38.89375 L38.2142857,24.6080357 L38.2142857,24.6080357 Z M23.9285714,36.2142857 L25.7142857,36.2142857 L25.7142857,38 L23.9285714,38 L23.9285714,36.2142857 Z M18.5714286,36.2142857 L22.1428571,36.2142857 L22.1428571,38 L18.5714286,38 L18.5714286,36.2142857 Z" id="ic-package" fill="#919191"></path>
                    </g>
                </g>
            </g>
        </g>
    </g>
</svg>