<?xml version="1.0" encoding="UTF-8" standalone="no"?>
<svg width="25px" height="25px" viewBox="0 0 25 25" version="1.1" xmlns="http://www.w3.org/2000/svg" xmlns:xlink="http://www.w3.org/1999/xlink" xmlns:sketch="http://www.bohemiancoding.com/sketch/ns">
    <!-- Generator: sketchtool 3.5.1 (25234) - http://www.bohemiancoding.com/sketch -->
    <title>Twitter</title>
    <desc>Created with sketchtool.</desc>
    <defs></defs>
    <g id="Homepage" stroke="none" stroke-width="1" fill="none" fill-rule="evenodd" sketch:type="MSPage">
        <g sketch:type="MSArtboardGroup" transform="translate(-1074.000000, -7843.000000)" id="Secondary-Footer" fill="#3DC7F4">
            <g sketch:type="MSLayerGroup" transform="translate(-1.000000, 7790.000000)">
                <g id="Social" transform="translate(1005.000000, 53.000000)" sketch:type="MSShapeGroup">
                    <path d="M82.2763636,0 C75.4963636,0 70,5.49636364 70,12.2763636 C70,19.0563636 75.4963636,24.5527273 82.2763636,24.5527273 C89.0572727,24.5527273 94.5531818,19.0563636 94.5531818,12.2763636 C94.5531818,5.49636364 89.0572727,0 82.2763636,0 L82.2763636,0 Z M87.5381818,12.5518182 C86.4077273,17.1368182 78.8213636,19.0818182 75.3318182,14.3213636 C76.6681818,15.5981818 78.9959091,15.7104545 80.4722727,14.1840909 C79.6068182,14.3109091 78.9768182,13.4609091 80.0404545,13.0018182 C79.0836364,13.1063636 78.5522727,12.5972727 78.3340909,12.165 C78.5581818,11.93 78.8054545,11.8209091 79.2840909,11.7895455 C78.2368182,11.5418182 77.8504545,11.0295455 77.7318182,10.4077273 C78.0227273,10.3377273 78.3859091,10.2786364 78.585,10.305 C77.6672727,9.82545455 77.3486364,9.10363636 77.3990909,8.56045455 C79.0381818,9.16954545 80.0822727,9.65863636 80.9554545,10.1277273 C81.2663636,10.2936364 81.6136364,10.5927273 82.005,10.9722727 C82.5036364,9.65363636 83.1195455,8.29363636 84.1745455,7.61954545 C84.1572727,7.77272727 84.075,7.91454545 83.9668182,8.03136364 C84.2663636,7.75954545 84.6545455,7.57227273 85.0495455,7.51772727 C85.0045455,7.815 84.5772727,7.98181818 84.3195455,8.07909091 C84.515,8.01818182 85.5531818,7.55454545 85.6659091,7.81863636 C85.8,8.11909091 84.95,8.25727273 84.8054545,8.30954545 C84.6972727,8.34545455 84.5895455,8.38545455 84.4831818,8.42818182 C85.7990909,8.29727273 87.055,9.38363636 87.4213636,10.7318182 C87.4477273,10.8290909 87.4736364,10.9363636 87.4972727,11.0495455 C87.9786364,11.2286364 88.8504545,11.0404545 89.1313636,10.8677273 C88.9281818,11.3486364 88.4004545,11.7027273 87.6218182,11.7672727 C87.9968182,11.9236364 88.7040909,12.0090909 89.1922727,11.9263636 C88.8831818,12.2577273 88.385,12.5586364 87.5381818,12.5518182 L87.5381818,12.5518182 Z" id="Twitter"></path>
                </g>
            </g>
        </g>
    </g>
</svg>