<?xml version="1.0" encoding="UTF-8" standalone="no"?>
<svg width="115px" height="115px" viewBox="0 0 115 115" version="1.1" xmlns="http://www.w3.org/2000/svg" xmlns:xlink="http://www.w3.org/1999/xlink" xmlns:sketch="http://www.bohemiancoding.com/sketch/ns">
    <!-- Generator: sketchtool 3.5.1 (25234) - http://www.bohemiancoding.com/sketch -->
    <title>Quote Icon</title>
    <desc>Created with sketchtool.</desc>
    <defs></defs>
    <g id="Homepage" stroke="none" stroke-width="1" fill="none" fill-rule="evenodd" sketch:type="MSPage">
        <g sketch:type="MSArtboardGroup" transform="translate(-136.000000, -6901.000000)" id="What-They’re-Saying">
            <g sketch:type="MSLayerGroup" transform="translate(0.000000, 6799.000000)">
                <g id="Quote-Icon" transform="translate(136.000000, 102.000000)" sketch:type="MSShapeGroup">
                    <circle id="Oval" opacity="0.22108209" fill="#FFFFFF" cx="57.5" cy="57.5" r="57.5"></circle>
                    <ellipse id="Oval" stroke="#FFFFFF" cx="57.5" cy="57.5" rx="37.5" ry="37.5"></ellipse>
                    <path d="M65.2461996,59.2369422 C64.0588751,59.2369422 63.0956162,58.2744277 63.0956162,57.0863587 C63.0956162,55.8990342 64.0588751,54.9357753 65.2461996,54.9357753 C66.4342686,54.9357753 67.3967831,55.8990342 67.3967831,57.0863587 C67.3967831,58.2744277 66.4342686,59.2369422 65.2461996,59.2369422 M57.7962034,59.2369422 C56.6088789,59.2369422 55.64562,58.2744277 55.64562,57.0863587 C55.64562,55.8990342 56.6088789,54.9357753 57.7962034,54.9357753 C58.983528,54.9357753 59.9467869,55.8990342 59.9467869,57.0863587 C59.9467869,58.2744277 58.983528,59.2369422 57.7962034,59.2369422 M50.3462072,59.2369422 C49.1581383,59.2369422 48.1956238,58.2744277 48.1956238,57.0863587 C48.1956238,55.8990342 49.1581383,54.9357753 50.3462072,54.9357753 C51.5335318,54.9357753 52.4967907,55.8990342 52.4967907,57.0863587 C52.4967907,58.2744277 51.5335318,59.2369422 50.3462072,59.2369422 M57.7962034,43 C47.4318652,43 39,49.2031193 39,56.8287949 C39,61.8736215 41.8131031,65.9462563 46.9398141,68.3521703 L46.9398141,75.4738843 L54.3034594,70.4164029 C55.4602634,70.5757054 56.6334442,70.6575898 57.7962034,70.6575898 C68.1605417,70.6575898 76.5924069,64.4537261 76.5924069,56.8287949 C76.5924069,49.2031193 68.1605417,43 57.7962034,43" id="Icon" fill="#FFFFFF"></path>
                </g>
            </g>
        </g>
    </g>
</svg>